   ____                 _     ____              _    
  / ___|_   _  ___  ___| |_  | __ )  ___   ___ | | __
 | |  _| | | |/ _ \/ __| __| |  _ \ / _ \ / _ \| |/ /
 | |_| | |_| |  __/\__ \ |_  | |_) | (_) | (_) |   < 
  \____|\__,_|\___||___/\__| |____/ \___/ \___/|_|\_\
                                                     
